sampleID	dosage.value	dosage	replicate
01-Ara48hGS1-0	0	G0	1
07-Ara48hGS2-0	0	G0	2
13-Ara48hGS3-0	0	G0	3
19-Ara48hGS4-0	0	G0	4
02-Ara48hGS1-1	1	G1	1
08-Ara48hGS2-1	1	G1	2
14-Ara48hGS3-1	1	G1	3
20-Ara48hGS4-1	1	G1	4
03-Ara48hGS1-10	10	G10	1
09-Ara48hGS2-10	10	G10	2
15-Ara48hGS3-10	10	G10	3
21-Ara48hGS4-10	10	G10	4
04-Ara48hGS1-40	40	G40	1
10-Ara48hGS2-40	40	G40	2
16-Ara48hGS3-40	40	G40	3
22-Ara48hGS4-40	40	G40	4
05-Ara48hGS1-100	100	G100	1
11-Ara48hGS2-100	100	G100	2
17-Ara48hGS3-100	100	G100	3
23-Ara48hGS4-100	100	G100	4
06-Ara48hGS1-290	290	G290	1
12-Ara48hGS2-290	290	G290	2
18-Ara48hGS3-290	290	G290	3
24-Ara48hGS4-290	290	G290	4
